@startuml
!include style.iuml
interface Veröffentlichung <<interface>>
Veröffentlichung <|.. Artikel
Artikel "1" *-- "1" Titel
Artikel "1" -- "*" Autor : Hauptautor
Artikel "*" -- "*" Autor : Coautor
@enduml
