@startuml
!include style.iuml
class "Lampe" as l1
class "Lampe" as l2
interface Leuchtmittel<<interface>>
class "Glühbirne" as g1
class "Glühbirne" as g2
l1 -> g1
l2 -> Leuchtmittel
Leuchtmittel <|.. g2
@enduml
